/Users/dasieloscarborrotoescuela/ReconSys-Assignment/PA5/src/main/java/edu/umn/cs/recsys/ii/IIMain.java
/Users/dasieloscarborrotoescuela/ReconSys-Assignment/PA5/src/main/java/edu/umn/cs/recsys/dao/MOOCItemDAO.java
/Users/dasieloscarborrotoescuela/ReconSys-Assignment/PA5/src/main/java/edu/umn/cs/recsys/QueryDAOProvider.java
/Users/dasieloscarborrotoescuela/ReconSys-Assignment/PA5/src/main/java/edu/umn/cs/recsys/dao/MOOCUserDAO.java
/Users/dasieloscarborrotoescuela/ReconSys-Assignment/PA5/src/main/java/edu/umn/cs/recsys/ii/SimpleItemItemModelBuilder.java
/Users/dasieloscarborrotoescuela/ReconSys-Assignment/PA5/src/main/java/edu/umn/cs/recsys/dao/ItemTagDAO.java
/Users/dasieloscarborrotoescuela/ReconSys-Assignment/PA5/src/main/java/edu/umn/cs/recsys/dao/TitleFile.java
/Users/dasieloscarborrotoescuela/ReconSys-Assignment/PA5/src/main/java/edu/umn/cs/recsys/dao/RatingFile.java
/Users/dasieloscarborrotoescuela/ReconSys-Assignment/PA5/src/main/java/edu/umn/cs/recsys/dao/UserNameDAO.java
/Users/dasieloscarborrotoescuela/ReconSys-Assignment/PA5/src/main/java/edu/umn/cs/recsys/dao/CSVItemTagDAO.java
/Users/dasieloscarborrotoescuela/ReconSys-Assignment/PA5/src/main/java/edu/umn/cs/recsys/dao/TagFile.java
/Users/dasieloscarborrotoescuela/ReconSys-Assignment/PA5/src/main/java/edu/umn/cs/recsys/dao/ItemTitleDAO.java
/Users/dasieloscarborrotoescuela/ReconSys-Assignment/PA5/src/main/java/edu/umn/cs/recsys/dao/MOOCRatingDAO.java
/Users/dasieloscarborrotoescuela/ReconSys-Assignment/PA5/src/main/java/edu/umn/cs/recsys/dao/UserFile.java
/Users/dasieloscarborrotoescuela/ReconSys-Assignment/PA5/src/main/java/edu/umn/cs/recsys/ii/SimpleItemItemModel.java
/Users/dasieloscarborrotoescuela/ReconSys-Assignment/PA5/src/main/java/edu/umn/cs/recsys/ii/SimpleGlobalItemScorer.java
/Users/dasieloscarborrotoescuela/ReconSys-Assignment/PA5/src/main/java/edu/umn/cs/recsys/ii/SimpleItemItemScorer.java
