recommendations for user 2138:
  862: 0.1418
  2024: 0.1298
  8358: 0.1151
  424: 0.0910
  581: 0.0778
recommendations for user 4965:
  640: 0.1730
  568: 0.1037
  2024: 0.0642
  85: 0.0514
  664: 0.0320
recommendations for user 3955:
  141: 0.1247
  862: 0.0725
  1572: 0.0470
  807: 0.0425
  857: 0.0366
recommendations for user 3060:
  862: 0.3708
  9741: 0.1170
  807: 0.1121
  812: 0.0902
  629: 0.0802
recommendations for user 1640:
  63: 0.1319
  5503: 0.0695
  194: 0.0363
  1900: 0.0284
  238: 0.0195